,PR,RT,PR/RT,P,Q,R,S,T,Age,Sex,Person
0,77.0,109.5,0.7031963470319634,0.07780120092880399,-0.040787645547904795,0.6194527557104809,-0.20258538170380783,0.12403032517736677,25,male,1
1,72,106,0.6792452830188679,0.12204077238040958,-0.08025313546094036,0.7524324774181709,-0.27525666813388505,0.2229173284240811,25,male,1
2,74.0,108.0,0.6851851851851852,0.11406945180595557,-0.06816264101347337,0.8167892975720866,-0.2674157900605303,0.22676624545453475,25,male,1
3,79,108,0.7314814814814815,0.13605980710343865,-0.05495282911115657,0.8099529875982772,-0.2263491346400122,0.22995740955422705,25,male,1
4,76.5,109.5,0.6986301369863014,0.11240650566498583,-0.05787561532592937,0.8056344857021436,-0.24628076257178472,0.21007487833446742,25,male,1
5,77,103,0.7475728155339806,0.1179702478621208,-0.06303863296821144,0.6348557403277192,-0.23629771488903484,0.19213828460092866,25,male,1
6,79,108,0.7314814814814815,0.13599170676692549,-0.09005874128921629,0.7505486023124506,-0.2693827602659965,0.23959447420038654,25,male,1
7,57.0,114.0,0.5,0.08759666645850313,-0.0656779485872477,0.40878953095975895,-0.2843107222611188,0.17898495987839894,23,female,2
8,68,119,0.5714285714285714,0.05092321283583487,-0.06002815636044586,0.43535732264975063,-0.1963891926470543,0.15164007866487864,23,female,2
9,61.5,111.0,0.5540540540540541,0.10032697031328369,-0.06891917207215696,0.4747261914264962,-0.2675719890078194,0.15115609650020165,23,female,2
10,59,113,0.5221238938053098,0.09010570252428236,-0.0770815316319525,0.5686258900366067,-0.2870850267114889,0.1640343680538801,23,female,2
11,66,118,0.559322033898305,0.11985162897992716,-0.07931204551584953,0.528092089237355,-0.34139572279598135,0.1739675363253203,23,female,2
12,58.0,88.0,0.6590909090909091,0.2144780157337566,-0.03520364722475433,0.4557051885325065,-0.21303211486057672,0.26450273358173587,23,female,2
13,59,109,0.5412844036697247,0.12378103738948416,-0.0944048791881331,0.48693009728768316,-0.3429525979709214,0.28660889268094664,23,female,2
14,67.0,118.0,0.5677966101694916,0.08352364784968454,-0.04292119806120477,0.44564165968262104,-0.2975553333244416,0.16682225790530944,23,female,2
15,68.5,114.0,0.6008771929824561,0.0837025402730706,-0.049288769617002515,0.5661331692677783,-0.31760205700897126,0.16623673725604698,23,female,2
16,49,89,0.550561797752809,0.052909200806203316,-0.07593169872956212,0.4484382442931005,-0.3205238032511557,0.2470346255317812,23,female,2
17,224,327,0.6850152905198776,0.1845900819069066,-0.048793807940567646,0.3227282992079241,-0.27664192266968524,0.3039369862407137,23,female,2
18,61.5,113.0,0.5442477876106194,0.07375871800757187,-0.06768013858359147,0.4192503943432643,-0.30591364708296476,0.18750057121537256,23,female,2
19,68.5,122.0,0.5614754098360656,0.09378380073210828,-0.08520439643811159,0.5501958725436237,-0.3227223597327739,0.19496606219338897,23,female,2
20,68,127,0.5354330708661418,0.11532173675682511,-0.09821826632317851,0.5286945097841028,-0.32499208997203877,0.1924913138060478,23,female,2
21,68,107,0.6355140186915887,0.1393956037877777,-0.045046855697217565,0.46673049011948753,-0.2966985830376281,0.23484427039285743,23,female,2
22,55,99,0.5555555555555556,0.05973421456539755,-0.06901284720384648,0.4121028366982221,-0.2774840395551564,0.18860880283652862,23,female,2
23,59.0,115.0,0.5130434782608696,0.09809499670465252,-0.037279143955499,0.4398407486213454,-0.2042612841873577,0.17869340349262405,23,female,2
24,67,117,0.5726495726495726,0.1288722842533886,-0.09539237710912168,0.524132198777523,-0.2938613951549817,0.24677628621734418,23,female,2
25,68.0,119.0,0.5714285714285714,0.11017495815719441,-0.07678335204616986,0.516746436775435,-0.2930393876571798,0.2270964491745723,23,female,2
26,61.5,118.0,0.5211864406779662,0.11715363869014205,-0.09176051424594729,0.5216077735080182,-0.2797463441923053,0.20094381469948477,23,female,2
27,65.0,117.0,0.5555555555555556,0.11367669914391625,-0.08342278698140827,0.5413827129047051,-0.2830215638508149,0.1987274544214714,23,female,2
28,70.0,119.0,0.5882352941176471,0.11953355143272598,-0.07959381373099139,0.49927216074563746,-0.2565029597403858,0.20749017154313767,23,female,2
29,71,129,0.5503875968992248,0.20949379541572147,-0.1350783348505757,0.9567352824120328,-0.2628933232735586,0.25688795409754694,23,female,3
30,71,129,0.5503875968992248,0.21755872407843055,-0.1066305798391925,0.9407196875397388,-0.2301481446727144,0.25955970523955424,23,female,3
31,74.5,129.0,0.5775193798449613,0.20209115777516695,-0.14252570165426923,0.9617525919134936,-0.24672527018779444,0.26947449044142674,23,female,3
32,79,130,0.6076923076923076,0.20535064397717462,-0.07708857678166785,0.7834477166412502,-0.18580086488530687,0.23612128918909492,23,female,3
33,78,131,0.5954198473282443,0.21087096668032126,-0.11921882807755214,0.81608809476233,-0.1550065081712952,0.25133007992444983,23,female,3
34,52.0,133.0,0.39097744360902253,0.14214709437889708,-0.059954396964381436,0.5403567150295995,-0.12428877295870841,0.1616182079477351,21,female,4
35,51,131,0.3893129770992366,0.14566752534727145,-0.07468790213951307,0.5823488017101086,-0.09872505922238142,0.16521399503057282,21,female,4
36,58,121,0.4793388429752066,0.1688139237871097,0.03733676785490955,0.2700840588795011,-0.21186830788240224,0.1568390758490963,21,male,5
37,60,129,0.46511627906976744,0.18799687107935203,0.05524418486974912,0.28148037108217344,-0.2772971126538126,0.16667952385245624,21,male,5
38,68,120,0.5666666666666667,0.1371086048006177,-0.011476271011900544,0.4043582219169309,-0.16416395164922454,0.2316254865592323,21,female,6
39,84.5,124.5,0.678714859437751,0.12024324988576632,-0.03978332087749484,0.5418166861123394,-0.14869871080436733,0.21135720371689487,21,male,7
40,58,109,0.5321100917431193,0.18617494215930014,-0.14427779771848245,0.8754888693193765,-0.18088035890080364,0.22185010314183395,21,female,8
41,58.0,110.0,0.5272727272727272,0.18724848568406038,-0.13700247278435854,0.8728947887829582,-0.1663722336492052,0.20868518135122863,21,female,8
42,88,119,0.7394957983193278,0.2827067162514211,0.08710964303669684,0.42803604459093875,-0.08002887437953182,0.19165752046592088,23,female,9
43,80.5,120.5,0.6680497925311203,0.2570825691891958,0.08346306502800122,0.44606364263287385,-0.08165080509032382,0.20460922288299752,23,female,9
44,89.0,128.5,0.6926070038910506,0.3043855094192149,0.08943918853510292,0.4186077555862094,-0.08278420922396794,0.1957710118325237,23,female,9
45,78,108,0.7222222222222222,0.14570291695837267,-0.013358708936237237,0.4112748043708156,-0.2861410938977748,0.28861844872350834,23,female,9
46,58.0,102.5,0.5658536585365853,0.12619530939655613,-0.03343473210305837,0.6905969278579223,-0.40860840731777753,0.23543825214080386,23,male,10
47,58,102,0.5686274509803921,0.12535268163121147,-0.020174601413544865,0.5624565684351538,-0.4126812845622792,0.23535026658839536,23,male,10
48,58,106,0.5471698113207547,0.102595080360775,-0.013167508994201571,0.5022578284752138,-0.38537829097886134,0.21659542154943753,23,male,10
49,65,117,0.5555555555555556,0.11207259418936336,-0.1315129545729537,1.1484973480023006,-0.26188894362311144,0.11716810948494681,22,female,12
50,64.5,117.0,0.5512820512820513,0.10177655046787001,-0.1313213437154339,1.1260539133614218,-0.26529290785712806,0.10643506977080729,22,female,12
51,48,109,0.44036697247706424,0.12193606015368788,-0.0853551718161056,0.6479422443376393,-0.22949508896982584,0.21149976083046818,21,female,16
52,41.0,109.0,0.3761467889908257,0.12400123543038467,-0.07482788222929244,0.6755532917361726,-0.2390575308791348,0.19590163685615233,21,female,16
53,49,107,0.45794392523364486,0.09940760700973357,-0.07776090920249383,0.6506251137362823,-0.24228142623892468,0.18285198659714985,21,female,16
54,63,126,0.5,0.16849451435064766,-0.18737525836951735,1.2815634979740012,-0.38148682402450346,0.17930208245666215,21,female,17
55,60.5,127.5,0.4745098039215686,0.1549696998699435,-0.15915419041834072,1.26089058579153,-0.36272085946038424,0.1775779139483813,21,female,17
56,52,116,0.4482758620689655,0.13655953768425375,-0.05744512448939859,0.6679826260329706,-0.20417187019705185,0.1512810681844421,23,female,19
57,229.5,229.0,1.002183406113537,0.33832093825366827,-0.06302878306662026,0.3689416985398179,-0.2218761242746361,0.3414896158237228,21,female,20
58,179,377,0.47480106100795755,0.16052066126954925,0.13529453521172663,0.39590574268490447,0.012166729560565264,0.28071100383087616,21,female,21
59,367.0,368.0,0.9972826086956522,0.3441694081218653,0.05924739957247649,0.41972227598484374,-0.12822526277693724,0.3701830340122229,21,female,21
60,100,138,0.7246376811594203,0.17976137057565908,0.0946718621777517,0.2930023312941224,0.06814926588107754,0.14627212900943878,25,male,22
61,99.0,124.0,0.7983870967741935,0.16935446009748684,0.07463235713850488,0.27779554306804327,0.062156720229288094,0.1312815094932619,25,male,22
62,58,120,0.48333333333333334,0.1982127343164671,-0.050016790719616525,0.5278613171607203,-0.7390838064307825,0.23898379806035275,25,male,23
63,62,119,0.5210084033613446,0.29379151705401374,-0.0567377744572857,0.5040287988993218,-0.6173480129137872,0.2092504316777784,25,male,23
64,68.5,120.0,0.5708333333333333,0.20030446350343023,-0.19748086740910387,0.9573702689847415,-0.3459048010657491,0.24208840453716252,48,male,25
65,68.0,119.0,0.5714285714285714,0.1842357153234585,-0.18037519925065415,0.9018356176521166,-0.34176925723203516,0.23657903715842557,48,male,25
66,68,119,0.5714285714285714,0.20610334420179607,-0.1792732098408069,0.9549334984974122,-0.33622157787559176,0.23007981800187888,48,male,25
67,68,119,0.5714285714285714,0.14927360630200034,-0.15568806007629626,0.9614716324625536,-0.3310947332191875,0.1962171735567672,48,male,25
68,69,120,0.575,0.15186384912392323,-0.15774827584029288,0.9757994444625337,-0.316814365316408,0.185017656281876,48,male,25
69,76.0,117.5,0.6468085106382979,0.0896211824323434,-0.04516403982446344,0.6256358472951103,-0.17390245743201574,0.09536839521905564,31,female,26
70,75,117,0.6410256410256411,0.0981214774250072,-0.03652549008621608,0.602063090214531,-0.15693177137522846,0.07801755773936732,31,female,26
71,75,117,0.6410256410256411,0.09430503723677637,-0.04210302410991427,0.6668450103546203,-0.17333739828284667,0.08911454647459198,31,female,26
72,78.0,119.0,0.6554621848739496,0.095564876972928,-0.04462656736859535,0.6495963982070202,-0.17185187271006008,0.10211382935130364,31,female,26
73,53,107,0.4953271028037383,0.09899223291369624,-0.030185961350953913,0.49450099260076263,-0.19755385650812948,0.13740639853279238,45,male,27
74,53,104,0.5096153846153846,0.0937331935449014,-0.03602427148965285,0.4740269774955484,-0.19729945756426168,0.1372999468475146,45,male,27
75,58,105,0.5523809523809524,0.09250527904451476,-0.014946638130085768,0.4838601122829171,-0.18382084949665065,0.10875341269519198,45,male,27
76,59,110,0.5363636363636364,0.1041359582992655,-0.10904796144535923,0.6245249399303558,-0.2710857406345637,0.21749130805187583,44,male,28
77,59,109,0.5412844036697247,0.10644405195662293,-0.11645875981616757,0.6187718745040722,-0.2529220731957297,0.21789841194622928,44,male,28
78,61,107,0.5700934579439252,0.11258623435017111,-0.1450098620318916,0.748986719792759,-0.21643845832867664,0.21922282616517977,44,male,28
79,60,110,0.5454545454545454,0.1051547745679636,-0.13571276312352118,0.7305893985901496,-0.19993806847499998,0.20909540512789035,44,male,28
80,61.0,104.5,0.583732057416268,0.1009722039669733,-0.1002585671638198,0.6649050575996333,-0.24945734793340238,0.2178285565045739,44,male,28
81,63.0,117.0,0.5384615384615384,0.08563858710996322,-0.03259048899742896,0.7936673150573769,-0.16320792978602,0.15069546160620795,40,male,29
82,62.0,117.0,0.5299145299145299,0.08260599356074225,-0.03264700520846756,0.7964518738552293,-0.16863616265930811,0.14034816587585794,40,male,29
83,74,101,0.7326732673267327,0.08585066610694722,-0.16462723495878892,1.481274551797147,-0.3674041420015485,0.1397683666407403,28,male,30
84,70.5,101.5,0.6945812807881774,0.09422434811137896,-0.15065332500338927,1.482027655464836,-0.37098687387074386,0.15804663238517216,28,male,30
85,76,112,0.6785714285714286,0.07241055945766431,-0.14537256733608372,1.4822139968031902,-0.34239717482937976,0.21668256581317305,28,male,30
86,75,111,0.6756756756756757,0.0950611353940219,-0.15870482756962465,1.5067404866970935,-0.3537378534269064,0.23089704035479275,28,male,30
87,73,112,0.6517857142857143,0.07691814390971263,-0.15767919526002241,1.3709486234117663,-0.34609390145085334,0.18467987759604956,28,male,30
88,85,130,0.6538461538461539,0.10669289775699325,-0.03315913319531275,0.7893348920221057,-0.17859541995081735,0.21719039309473226,46,female,32
89,81.0,128.0,0.6328125,0.11036776521461154,-0.03900028533367595,0.7951892687860024,-0.17280619546569922,0.2396334117725197,46,female,32
90,83,124,0.6693548387096774,0.12746237550132558,-0.060077535730997306,0.9716479004707668,-0.2156779791256436,0.23500763982965936,46,female,32
91,82,127,0.6456692913385826,0.1582868193182704,-0.045442755965820106,0.9250612664138587,-0.19881299381791234,0.23848775788780935,46,female,32
92,65.5,114.5,0.5720524017467249,0.12972900414294405,-0.08199816010029469,0.8311723475926771,-0.4852043045885457,0.19119297900272963,59,male,33
93,67,112,0.5982142857142857,0.07167127237666301,-0.09736740744411007,0.6911140432660423,-0.1332595855827021,0.10196745258855194,49,female,34
94,66.5,114.0,0.5833333333333334,0.05483646731372742,-0.08665093424063001,0.6786915138119026,-0.118254742733223,0.11076776740981079,49,female,34
95,67,119,0.5630252100840336,0.07890822445526174,-0.10960913679200977,0.8922129812621454,-0.14921013058476298,0.10944085364625626,49,female,34
96,61,123,0.4959349593495935,0.06970129301226705,-0.14152733780797594,0.9575032386647645,-0.15691843966444155,0.08750898686351945,49,female,34
97,65.0,114.5,0.5676855895196506,0.05620657878312626,-0.098334295140374,0.776673089363068,-0.14354717398893216,0.09801540378074439,49,female,34
98,65.0,100.0,0.65,0.07447743916418795,-0.10414814944922876,0.8465084460338946,-0.1252374178847099,0.1738040341769196,25,male,35
99,68,101,0.6732673267326733,0.07211353462288757,-0.09862564715782035,0.8078643806715258,-0.12325497372111369,0.17794512754107392,25,male,35
100,68,102,0.6666666666666666,0.07536322890646359,-0.09661996639535778,0.8631280907906466,-0.13753070054676844,0.13877677573342614,25,male,35
101,68,99,0.6868686868686869,0.07489565429078128,-0.11212464534432984,0.8749005701431778,-0.1415565685899067,0.13363959402996703,25,male,35
102,67.5,104.0,0.6490384615384616,0.07336676290507389,-0.06279647120969006,0.7520853378085306,-0.1027275915624859,0.1535214150929404,25,male,35
103,68,124,0.5483870967741935,0.11377713835608615,0.0033654645215284037,0.2938080287381971,-0.3542491446521101,0.18382723375651122,24,male,36
104,66.5,125.5,0.5298804780876494,0.07216592253949011,-0.017867202347494192,0.28259824897586844,-0.41155454361424937,0.18103618687222883,24,male,36
105,69.0,111.0,0.6216216216216216,0.07437281244766274,-0.012726186476392004,0.3171266454715522,-0.40186937784500254,0.1767065409321378,24,male,36
106,64.5,112.5,0.5733333333333334,0.0720676373521388,-0.012404311266759125,0.31427139846317836,-0.41021849115948433,0.1896927490552045,24,male,36
107,57.5,111.0,0.5180180180180181,0.07446136259867325,-0.006959130996885833,0.23472216124040893,-0.4606884355884801,0.16903352843893943,24,male,36
108,58.0,125.0,0.464,0.12886158036783066,-0.09134903335767591,0.9987910858185165,-0.17145423728382195,0.19292488530625676,55,female,37
109,56.5,131.5,0.4296577946768061,0.11764662550026966,-0.0754254888376288,0.9981980939575771,-0.15690476824095348,0.19806328171086687,55,female,37
110,68,123,0.5528455284552846,0.08443374165362239,-0.04732664780292219,0.8870979690421512,-0.20273900845348453,0.18906483956627956,27,male,39
111,67.0,124.5,0.5381526104417671,0.07381654922304186,-0.058994626558121446,0.8786610502694068,-0.18594331005160306,0.16818915434762466,27,male,39
112,63,111,0.5675675675675675,0.0680509431979035,-0.04278426903296517,0.6008602300181958,-0.12269399135103666,0.12006232476613836,21,female,40
113,75,112,0.6696428571428571,0.0644855708726299,-0.04263568486596639,0.6052487152403963,-0.12486342001301458,0.14327372086636656,21,female,40
114,66,110,0.6,0.07584088192191553,-0.019484671607037426,0.5695492791365281,-0.1077609623742239,0.12445507344200414,21,female,40
115,65,115,0.5652173913043478,0.07946025843098337,-0.019171439003037936,0.5613061882188631,-0.10057087750598188,0.13479529087465317,21,female,40
116,57,137,0.41605839416058393,0.1519348513239242,-0.19601468139490003,1.084943376495572,-0.260264337459471,0.2242835985411975,55,female,41
117,48,138,0.34782608695652173,0.12453432058853141,-0.1939379905984155,1.1304444840664758,-0.2461493765896831,0.16930228680226717,55,female,41
118,79,128,0.6171875,0.09333265441257067,-0.030481989924981717,0.48069138430152947,-0.18112250963477927,0.13957117904519656,23,female,43
119,78,128,0.609375,0.09016599313185801,-0.03198422951647389,0.48517574101186595,-0.1652441428325044,0.1421360814575129,23,female,43
120,60.0,107.0,0.5607476635514018,0.10355292762668282,-0.024847285339866396,0.8096303955179379,-0.29948674570279765,0.14738930197365083,21,male,46
121,59,106,0.5566037735849056,0.07700948046348957,-0.03648220245709161,0.7505147500173261,-0.2935458162711997,0.13964973191543673,21,male,46
122,57,97,0.5876288659793815,0.09423631512712859,-0.05617066039457324,0.733544673364516,-0.29128326983101605,0.1490813300131111,21,male,46
123,55.0,101.0,0.5445544554455446,0.0774623269048487,-0.04417355161886205,0.787482965451151,-0.3045473021400144,0.13815065139513036,21,male,46
124,55,98,0.5612244897959183,0.05962034065781943,-0.04031379380651159,0.5377846765322937,-0.2421561687814641,0.1277653001991849,21,male,46
125,49.0,99.0,0.494949494949495,0.07110634070460904,-0.02785902374929897,0.679036090888888,-0.3130026578375773,0.13918755807297387,20,female,47
126,57,100,0.57,0.08373161704505477,-0.09265538058316797,0.8164829697564441,-0.2181774823353148,0.19916099540387397,19,male,50
127,59.0,98.5,0.5989847715736041,0.08907615698279171,-0.10666891322519051,0.8159238641816065,-0.23476532575466214,0.19114161245491668,19,male,50
128,73,126,0.5793650793650794,0.11328243024188572,-0.06685315082314834,0.40521660062791226,-0.29620643008818354,0.2077988791468145,31,male,51
129,78,508,0.15354330708661418,0.10317325447486903,-0.052020011685180945,0.3781125511737945,-0.26005837827651435,0.33357528072672193,31,male,51
130,73,115,0.6347826086956522,0.10495536545832769,-0.07265200853669837,0.42634535637467613,-0.36889644166835334,0.2564242756820319,31,male,51
131,74.0,120.0,0.6166666666666667,0.10754777301578451,-0.06257580579421586,0.44677505239600424,-0.34454067886620693,0.23409360672126225,31,male,51
132,57,118,0.4830508474576271,0.08145736928970684,-0.06588001241742321,0.6075416110107243,-0.22986030449839187,0.14030006610160708,23,female,52
133,51,98,0.5204081632653061,0.07510495207659458,-0.07474400701741006,0.6205664542456528,-0.26398207246244043,0.12355982535170928,23,female,52
134,50,101,0.49504950495049505,0.059339008190413135,-0.07414585666306267,0.6180993016936834,-0.27667792896151217,0.1184291195658229,23,female,52
135,55.5,118.0,0.4703389830508475,0.07116655166594947,-0.06606205405893026,0.5973848492642619,-0.22776329372892973,0.1352794952262769,23,female,52
136,57,120,0.475,0.076008556343702,-0.0614888316655995,0.612614854340864,-0.2306754555761779,0.13823279486587262,23,female,52
137,57,110,0.5181818181818182,0.07297615659577386,-0.07493327662587071,0.6906492723703446,-0.23678742652123339,0.1313876170881518,23,female,52
138,57,109,0.5229357798165137,0.06766909859897073,-0.08300702324579276,0.7133863579899042,-0.25859304994078014,0.14036999173671388,23,female,52
139,56.0,107.5,0.5209302325581395,0.060897463976314514,-0.09042200168505585,0.7208622841188255,-0.2665769321961351,0.13646304378197233,23,female,52
140,54.5,107.0,0.5093457943925234,0.06228429770307702,-0.07334757801493005,0.6475986686632282,-0.271488421339674,0.15728793552360532,23,female,52
141,56,112,0.5,0.05145601469977734,-0.07615567620011152,0.6737545999518294,-0.28305038778520336,0.16265905033754452,23,female,52
142,58.5,116.0,0.5043103448275862,0.08063472600058127,-0.17883244390298894,0.6376502597479736,-0.2677481632958799,0.038040862311543404,21,male,53
143,56.0,94.0,0.5957446808510638,0.06453538566757384,-0.03332170546237288,0.6747460424163695,-0.12112682370498615,0.08556478204886614,36,male,57
144,56,96,0.5833333333333334,0.062155799145408204,-0.038979339322408366,0.6299735230918961,-0.1340396721419255,0.07748111597743376,36,male,57
145,57.0,93.0,0.6129032258064516,0.07567031784290232,-0.05993712101003712,0.6962973019828748,-0.1446605651702212,0.10628501432682344,36,male,57
146,71,119,0.5966386554621849,0.11353560886025325,-0.06263862623924785,1.1375001783986842,-0.36040130207499954,0.1882261239048561,24,male,58
147,71.5,125.0,0.572,0.11393779814103489,-0.05415953790084266,1.1318481774244833,-0.3801250126700738,0.20113433121201857,24,male,58
148,54.5,112.0,0.48660714285714285,0.11942892680725599,-0.06003677842256525,0.4467935045884995,-0.4019995325531645,0.21238986231336032,45,male,59
149,57,110,0.5181818181818182,0.11854595219516384,-0.06156739607807739,0.418208173741953,-0.3694556739161288,0.18879340372179867,45,male,59
150,53,95,0.5578947368421052,0.06671380195332559,-0.09912141952892932,0.34075672602034207,-0.3060067851537126,0.25171802782065855,45,male,59
151,57.0,131.0,0.4351145038167939,0.12277857120771604,-0.04792046334296173,0.4424203171199442,-0.28069880085790044,0.17071933498959857,45,male,59
152,56.0,132.0,0.42424242424242425,0.12436418577269123,-0.05817353706228281,0.4374686020986265,-0.2982524088792703,0.17389911575414516,45,male,59
153,70.5,100.0,0.705,0.06270207959199608,-0.020479016399030617,0.5330710684822574,-0.1037133618799425,0.20944766337073742,16,female,60
154,80.5,109.0,0.7385321100917431,0.08655866495039938,-0.03640341261811645,0.5572973601188641,-0.10187691618461918,0.17618990233555917,16,female,60
155,68,110,0.6181818181818182,0.07455099505286236,-0.07016733801496888,0.6014226561075857,-0.2683712153594194,0.23837810816644409,16,female,61
156,67,113,0.5929203539823009,0.08727313174865929,-0.05383369027488396,0.5649753706625773,-0.22322816407352747,0.23180361207305306,16,female,61
157,69.5,110.5,0.6289592760180995,0.0651720591089417,-0.05176262912038365,0.46812596750660995,-0.24021931154643328,0.20391756584020726,16,female,61
158,71.0,110.0,0.6454545454545455,0.08408787900325886,-0.11397903009944953,0.720595370340165,-0.32104853194711946,0.21488982810338478,16,female,61
159,64,112,0.5714285714285714,0.07695986875229044,-0.0242953386917167,0.5139990169077203,-0.2010029313592342,0.1690302156680211,23,male,63
160,60.5,111.0,0.545045045045045,0.06594735776941092,-0.041113703966679384,0.5210941879999742,-0.20344994048138482,0.16351426863158397,23,male,63
161,73.0,112.5,0.6488888888888888,0.08492579325973813,-0.0289032747521366,0.5627034284450549,-0.2198807325221021,0.14956791641858402,23,male,63
162,76.0,117.5,0.6468085106382979,0.1076279491139274,-0.023320819915871798,0.5402369323155278,-0.1895841076270423,0.14337471246485922,23,male,63
163,70,118,0.5932203389830508,0.08845855586186413,-0.017688475356883192,0.5287003000965994,-0.1715873600922726,0.15461933058485205,23,male,63
164,71.0,113.5,0.6255506607929515,0.1025382669866838,-0.06504085111833602,0.7752048102377952,-0.2751906410091382,0.18263305123580942,23,male,63
165,63.5,120.5,0.5269709543568465,0.12266775602752866,-0.06248913404166518,0.9987133468806408,-0.326938270738589,0.17057844141178904,68,male,64
166,64.0,124.0,0.5161290322580645,0.12093152149435565,-0.05962646804820712,0.986918538867391,-0.33227685665183304,0.19590341357472207,68,male,64
167,64.0,125.0,0.512,0.12252345005070357,-0.060163291401203495,0.9828176143777436,-0.3101029682683677,0.1784521754846391,68,male,64
168,61.0,105.5,0.5781990521327014,0.13615482883506694,-0.08651555863254302,0.7715460764919461,-0.4354993512790805,0.29370568055418456,13,male,65
169,60,109,0.5504587155963303,0.3450243793521582,-0.15883802594352897,0.6858039822089599,-0.3967814292121906,0.18341237660322263,13,male,65
170,63,117,0.5384615384615384,0.11974956820327658,-0.06707849545121902,0.945139301017637,-0.5049581279407551,0.1503863490711209,39,male,67
171,57.0,97.0,0.5876288659793815,0.06566724890456835,-0.05971478985531339,0.9730844292778741,-0.2482756349655692,0.15177817795712317,16,male,69
172,58,104,0.5576923076923077,0.09540843765149323,-0.04992845822558163,1.0478907155516137,-0.25133013179469554,0.19110218549317426,16,male,69
173,70.0,112.5,0.6222222222222222,0.10824586238027689,-0.015171447231297916,0.477336274538575,-0.2275418484241322,0.18306521076954171,23,female,71
174,69,109,0.6330275229357798,0.09490448015162062,-0.03280220286001068,0.4688290481855044,-0.2348293381733868,0.18774248854394734,23,female,71
175,64,113,0.5663716814159292,0.15334128770270702,-0.054581735915292896,0.7948492999508939,-0.39492510908673745,0.25103412059022967,39,male,72
176,65,113,0.5752212389380531,0.11082094205862301,-0.020833392943204458,0.8132109545676279,-0.3916556428558443,0.2521294649066348,39,male,72
177,76,135,0.562962962962963,0.10869267064543583,-0.03388253659675716,0.6383490975007252,-0.2523013764321084,0.1989390076044374,36,male,74
178,84,126,0.6666666666666666,0.08107351761019897,-0.007925758035001956,0.39804590486421676,-0.12793073007382488,0.30836220345235177,25,female,79
179,87,123,0.7073170731707317,0.0921607071682107,-0.022709013722730483,0.41387260033166556,-0.13674059152249737,0.31451747351688,25,female,79
180,83,106,0.7830188679245284,0.05751401348046029,-0.04947847792085975,0.5572044980461883,-0.276615431055655,0.18009459172907483,20,female,80
181,79,106,0.7452830188679245,0.049749144465645836,-0.0756246411148423,0.5832146679381816,-0.34555121090102137,0.20365081735720084,20,female,80
182,68.0,101.5,0.6699507389162561,0.0814872389699559,-0.033147791655741346,0.572566564619392,-0.2345724415462189,0.16272360593523846,25,male,82
183,75,102,0.7352941176470589,0.0882302200684598,-0.05239034303882343,0.5727939060334604,-0.2365971715218465,0.18975693493924686,25,male,82
184,63,106,0.5943396226415094,0.06447404719400364,-0.02635775638000433,0.6066793054932643,-0.24127254374713142,0.11293234970447352,17,male,83
185,64.0,105.5,0.6066350710900474,0.05195670649045056,-0.02509651982998001,0.616619847028802,-0.24075254231179682,0.10310898016456353,17,male,83
186,66,105,0.6285714285714286,0.2938741358786113,-0.03154627666995574,0.5832970397280389,-0.14808512488145537,0.2747793324404691,16,female,86
187,63,108,0.5833333333333334,0.23184203788538602,-0.05162585955482342,0.6305722717433538,-0.16615457724995392,0.2848599346002328,16,female,86
188,75,116,0.646551724137931,0.06915338933972834,-0.04334599163559886,0.6007595231638351,-0.11517261779615318,0.19396336720697768,16,female,87
189,29.0,40.0,0.725,0.30826153947668916,-0.20267510559981342,0.39719040942683603,-0.19740701689461135,0.3250123179740281,16,female,87
